1                   OMNITAB  TEST F1  HARMONIC ANALYSIS  (BESSEL)  VERSION 5.00  6/12/70                      PAGE   1
                                                                                                                         
                                                                                                                         
    DEGREE         POINTS         COEF       

      0.             149.00000 * 1.6716667+02
     15.000000       137.00000 *-1.9983114+01
     30.000000       128.00000  -3.4098821   
     45.000000       126.00000   5.4706860   
     60.000000       128.00000  -1.2916666   

     75.000000       135.00000    .24975991  
     90.000000       159.00000    .75000000  
    105.00000        178.00000    .30921158  
    120.00000        189.00000    .45833334  
    135.00000        191.00000   -.30401936  

    150.00000        189.00000   -.090117976 
    165.00000        187.00000   -.24252388  
    180.00000        178.00000   -.083333336 
    195.00000        170.00000 *-1.2779232+01
    210.00000        177.00000 *-1.6624571+01

    225.00000        183.00000   -.32322329  
    240.00000        181.00000   1.5155444   
    255.00000        179.00000   1.4616939   
    270.00000        179.00000  -2.5833333   
    285.00000        185.00000    .32216585  

    300.00000        182.00000   -.21650635  
    315.00000        176.00000    .67677671  
    330.00000        166.00000   -.45876288  
    345.00000        160.00000   -.63970399  

  ABOVE PROBLEM IS EXAMPLE FROM J.B. SCARBOROUGH                             
  NUMERICAL MATHEMATICAL ANALYSUS (2ND ED.,1950) PAGES 490-491               


   *********************************************************************     

   VALUE IN THE NEXT ROW MUST BE CLOSE TO OR EQUAL ZERO                      

                                 1.386132E+02

  **********************************************************************     
1                   OMNITAB  TEST F1  HARMONIC ANALYSIS  (BESSEL)  VERSION 5.00  6/12/70                      PAGE   2


                    LIST OF COMMANDS, DATA AND DIAGNOSTICS


                        SET  1                                                                          
                        149 137 128 126 128 135 159 178 189 191                                         
                        189 187 178 170 177 183 181 179 179 185                                         
                        182 176 166 160                                                                 
                        HARMONIC  OF POINTS IN COL 1 24 POINTS RESULT IN 2                              
                        GENERATE  0. (15.) 345.  3                                                      
                        HEAD 3/ DEGREE                                                                  
                        HEAD 1/ POINTS                                                                  
                        HEAD 2/ COEF                                                                    
                        PRINT 3  1  2                                                                   
                        SPACE                                                                           
                        NOTE ABOVE PROBLEM IS EXAMPLE FROM J.B. SCARBOROUGH                             
                        NOTE NUMERICAL MATHEMATICAL ANALYSUS (2ND ED.,1950) PAGES 490-491               
                         $ READ FOLLOWING DATA INTO COL 11 DATA WILL NOT BE LISTED                      
                        NO LIST                                                                         
                        SUBTRACT  11 FROM 2 STORE IN 11                                                 
                        AVERAGE   1S STORE IN 11                                                        
                        SPACE 2                                                                         
                        NOTE  *********************************************************************     
                        SPACE                                                                           
                        NOTE  VALUE IN THE NEXT ROW MUST BE CLOSE TO OR EQUAL ZERO                      
                        SPACE                                                                           
                        FORMAT  A  (30X,1PE15.6)                                                        
                        ABRIDGE  A  ROW 1 COL 11                                                        
                        SPACE                                                                           
                        NOTE **********************************************************************     
                        STOP                                                                            
0
                                  NATIONAL BUREAU OF STANDARDS, WASHINGTON, D. C.  20234, OMNITAB II VERSION 5.00 MAY 15, 1970  
1
