1                   OMNITAB TEST F6 MATRIX AND ARRAY COMMANDS (MKRON) VERSION 5.00 6/19/70                    PAGE   1
  THE FOLLOWING IS AN EXAMPPLE OF THE MKRONECKER COMMAND. MATIX A WAS DEFINED BY MDEFINE.   MATRIX B WAS DEFINED BY THE  
  MDIAGONAL, MADD, AND AERASE COMMANDS. MATRIX C WAS DEFINED BY THE MKRONECKER COMMAND                                   
      MATRIX A                      MATRIX B                      MATRIX C    COLUMN    6                               

      2.0000000      2.0000000      3.0000000      2.0000000      6.0000000      4.0000000      6.0000000      4.0000000
      2.0000000      2.0000000      2.0000000                     4.0000000      0.             4.0000000      0.       
      0.             0.             0.                            6.0000000      4.0000000      6.0000000      4.0000000
      0.             0.             0.                            4.0000000      0.             4.0000000      0.       


  ARRAYS                                                                     

      A                   B                   D=A*B               E=-2*B     

      2.00      2.00      3.00      2.00      6.00      4.00     -6.00     -4.00
      2.00      2.00      2.00       .00      4.00       .00     -4.00       .00


  ARRAYS                                                                     

      F=D+E               G=A**2              H=-2*A              I=G/H      

       .00       .00      4.00      4.00     -4.00     -4.00     -1.00     -1.00
       .00       .00      4.00      4.00     -4.00     -4.00     -1.00     -1.00


  ***************************************************************************

  THE FOLLOWING VALUES MUST BE EQUAL TO OR NEAR 0.0                          

      0.       

  ************************************************************************** 
1                   OMNITAB TEST F6 MATRIX AND ARRAY COMMANDS (MKRON) VERSION 5.00 6/19/70                    PAGE   2


                    LIST OF COMMANDS, DATA AND DIAGNOSTICS


                        MDEFINE MATRIX A IN ROW 1 COLUMN 1 SIZE IS 2X2 VALUE=2.0                        
                        MDIAGONAAL OF B IN ROW 1 COLUMN 3 SIZE IS 2X2 VALUE=1.0                         
                        MADD MATRIX A IN R=1 C=1 SIZE IS 2X2 TO MATRIX B R=1 C=3 SIZE 2X2  STORE 1  3   
                        AERASE MARTIX B IN R=2 C=4 SIZE IS 1X1                                          
                        MKRONECKER OF A R=1 C=1 SIZE=2X2 BY MATRIX B R=1 C=3 SIZE=2X2 INTO MATRIX C 1 5 
                        RESET NRMAX TO 4                                                                
                        TITLE1 THE FOLLOWING IS AN EXAMPPLE OF THE MKRONECKER COMMAND. MATR             
                        TITLE2IX A WAS DEFINED BY MDEFINE.   MATRIX B WAS DEFINED BY THE                
                        TITLE3 MDIAGONAL, MADD, AND AERASE COMMANDS. MATRIX C WAS DEFINED               
                        TITLE4BY THE MKRONECKER COMMAND                                                 
                        HEAD COL  1/   MATRIX A                                                         
                        HEAD COL  2/                                                                    
                        HEAD COL  3/   MATRIX B                                                         
                        HEAD COL  4/                                                                    
                        HEAD COL  5/   MATRIX C                                                         
                        HEAD COL  7/                                                                    
                        HEAD COL  8/                                                                    
                        PRINT 1***8                                                                     
                        AMULT MATRIX A R=1 C=1 SIZE=2X2 TIMES MATRIX B R=1 C=3 STORE IN ROW 1 COLUMN 9  
                        MSCALAR MATRIX B R=1 C=3 SIZE=2X2 TIMES THE VALUE-2.0 STORE IN ROW 1 COLUMN 11  
                        AADD MATRIX IN R=1 C=9 SIZE IS 2X2 TO MATRIX IN R=1 C=11 SIZE IS 2X2 INTO 1,13  
                        ARAISE MATRIX N R=1 C=1 SIZE IS 2X2 TO POWER 2.0 STORE IN R=1 C=15              
                        MSCALAR MATRIX IN R=1 C=1 SIZE IS 2X2 TIMES VALUE -2.0 STORE IN R=1 C=17        
                        ADIVIDE MATRIX IN R=1 C=15 SIZE IS 2X2 BY MATRIX IN R=1 C=17 STORE IN R=1 C=19  
                        AMULTIPLY      B R=1 C=3 SIZE=2X2 TIMES THE VALUE 2.0 STORE IN ROW 1 COLUMN 21  
                        ADEFINE MATRIX J IN R=1 COLUMN 23 SIZE=2X2 VALUE=1.0                            
                        ADIV MATRIX E R=1 C=11 SIZE 2X2 BY MATRIX J R=1 C=21 STORE IN R=1 C=25          
                        SPACE 2                                                                         
                        RESET NRMAX EQUAL TPP 2                                                         
                        NOTE ARRAYS                                                                     
                        SPACE                                                                           
                        NOTE     A                   B                   D=A*B               E=-2*B     
                        SPACE                                                                           
                        FORMAT C (8F10.2)                                                               
                        NPRINT C COLUMNS 1 2 3 4 9 10 11 12                                             
                        SPACE 2                                                                         
                        NOTE ARRAYS                                                                     
                        SPACE                                                                           
                        NOTE     F=D+E               G=A**2              H=-2*A              I=G/H      
                        SPACE                                                                           
                        FORMAT B (8F10.2)                                                               
                        NPRINT B COLUMNS 13***20                                                        
                        ROWSUM COLUMNS 13***26 AND STORE IN COLUMN 27                                   
                        SET THE FOLLOWING VALUES IN COLUMN 28                                           
                        8.0 3.0                                                                         
                        SUBTRACT COLUMN 27 FROM COLUMN 28 AND STORE IN COLUMN 28                        
                        AVERAGE COLUMN 28 AND STORE IN COLUMN 27                                        
                        SPACE  2                                                                        
                        NOTE ***************************************************************************
                        SPACE                                                                           
1                   OMNITAB TEST F6 MATRIX AND ARRAY COMMANDS (MKRON) VERSION 5.00 6/19/70                    PAGE   3


                    LIST OF COMMANDS, DATA AND DIAGNOSTICS


                        NOTE THE FOLLOWING VALUES MUST BE EQUAL TO OR NEAR 0.0                          
                        SPACE                                                                           
                        ABRIDGE ROW 1  COLUMN 27                                                        
                        SPACE                                                                           
                        NOTE ************************************************************************** 
                        STOP                                                                            
0
                                  NATIONAL BUREAU OF STANDARDS, WASHINGTON, D. C.  20234, OMNITAB II VERSION 5.00 MAY 15, 1970  
1
